Labs/Lab7/Lab7/Lab7.sim/sim_1/behav/xsim/simulate.log
Time resolution is 1 ps
Request  x: 
page fault: 0
data read posedge: xxxxxxxx
contents in TLB: 
block 00: tag:  0, valid: 0, reference: 00, VPN: 0
block 01: tag:  0, valid: 0, reference: 00, VPN: 0
block 10: tag:  0, valid: 0, reference: 00, VPN: 0
block 11: tag:  0, valid: 0, reference: 00, VPN: 0
contents in cache: 
block 00: tag: 00000, valid: 0, dirty: 0, word0: 00000000, word1: 00000000, word2: 00000000, word3: 00000000
block 01: tag: 00000, valid: 0, dirty: 0, word0: 00000000, word1: 00000000, word2: 00000000, word3: 00000000
block 10: tag: 00000, valid: 0, dirty: 0, word0: 00000000, word1: 00000000, word2: 00000000, word3: 00000000
block 11: tag: 00000, valid: 0, dirty: 0, word0: 00000000, word1: 00000000, word2: 00000000, word3: 00000000
Request  0: 
page fault: 0
data read posedge: xxxxxxxx
contents in TLB: 
block 00: tag:  4, valid: 1, reference: 11, VPN: 2
block 01: tag:  0, valid: 0, reference: 00, VPN: 0
block 10: tag:  0, valid: 0, reference: 00, VPN: 0
block 11: tag:  0, valid: 0, reference: 00, VPN: 0
contents in cache: 
block 00: tag: 10100, valid: 1, dirty: 1, word0: 00000281, word1: 00000001, word2: 00000285, word3: 0000028d
block 01: tag: 00000, valid: 0, dirty: 0, word0: 00000000, word1: 00000000, word2: 00000000, word3: 00000000
block 10: tag: 00000, valid: 0, dirty: 0, word0: 00000000, word1: 00000000, word2: 00000000, word3: 00000000
block 11: tag: 00000, valid: 0, dirty: 0, word0: 00000000, word1: 00000000, word2: 00000000, word3: 00000000
Request  1: 
page fault: 0
data read posedge: xxxxxxxx
contents in TLB: 
block 00: tag:  4, valid: 1, reference: 10, VPN: 2
block 01: tag:  0, valid: 1, reference: 11, VPN: 1
block 10: tag:  0, valid: 0, reference: 00, VPN: 0
block 11: tag:  0, valid: 0, reference: 00, VPN: 0
contents in cache: 
block 00: tag: 10100, valid: 1, dirty: 1, word0: 00000281, word1: 00000001, word2: 00000285, word3: 0000028d
block 01: tag: 00000, valid: 0, dirty: 0, word0: 00000000, word1: 00000000, word2: 00000000, word3: 00000000
block 10: tag: 01100, valid: 1, dirty: 1, word0: 00000dac, word1: 00000195, word2: 00000199, word3: 00000191
block 11: tag: 00000, valid: 0, dirty: 0, word0: 00000000, word1: 00000000, word2: 00000000, word3: 00000000
Request  2: 
page fault: 0
data read posedge: xxxxxxxx
contents in TLB: 
block 00: tag:  4, valid: 1, reference: 01, VPN: 2
block 01: tag:  0, valid: 1, reference: 10, VPN: 1
block 10: tag:  1, valid: 1, reference: 11, VPN: 3
block 11: tag:  0, valid: 0, reference: 00, VPN: 0
contents in cache: 
block 00: tag: 10100, valid: 1, dirty: 1, word0: 00000281, word1: 00000001, word2: 00000285, word3: 0000028d
block 01: tag: 00000, valid: 0, dirty: 0, word0: 00000000, word1: 00000000, word2: 00000000, word3: 00000000
block 10: tag: 01100, valid: 1, dirty: 1, word0: 00000dac, word1: 00000195, word2: 00000199, word3: 00000191
block 11: tag: 11100, valid: 1, dirty: 1, word0: 00000391, word1: 00000fac, word2: 00000395, word3: 0000039d
Request  3: 
page fault: 0
data read posedge: xxxxxxxx
contents in TLB: 
block 00: tag:  4, valid: 1, reference: 01, VPN: 2
block 01: tag:  0, valid: 1, reference: 10, VPN: 1
block 10: tag:  1, valid: 1, reference: 11, VPN: 3
block 11: tag:  0, valid: 0, reference: 00, VPN: 0
contents in cache: 
block 00: tag: 10100, valid: 1, dirty: 1, word0: 00000281, word1: 00000001, word2: 00000285, word3: 0000028d
block 01: tag: 00000, valid: 0, dirty: 0, word0: 00000000, word1: 00000000, word2: 00000000, word3: 00000000
block 10: tag: 01100, valid: 1, dirty: 1, word0: 00000dac, word1: 00000195, word2: 00000199, word3: 00000191
block 11: tag: 11100, valid: 1, dirty: 1, word0: 00000391, word1: 00000fac, word2: 00000395, word3: 0000039d
Request  4: 
page fault: 0
data read posedge: 00000001
contents in TLB: 
block 00: tag:  4, valid: 1, reference: 00, VPN: 2
block 01: tag:  0, valid: 1, reference: 01, VPN: 1
block 10: tag:  1, valid: 1, reference: 10, VPN: 3
block 11: tag:  7, valid: 1, reference: 11, VPN: 1
contents in cache: 
block 00: tag: 10100, valid: 1, dirty: 1, word0: 00000281, word1: 00000001, word2: 00000285, word3: 0000028d
block 01: tag: 00000, valid: 0, dirty: 0, word0: 00000000, word1: 00000000, word2: 00000000, word3: 00000000
block 10: tag: 01100, valid: 1, dirty: 1, word0: 00000dac, word1: 00000195, word2: 00000199, word3: 00000191
block 11: tag: 11100, valid: 1, dirty: 1, word0: 00000391, word1: 00000fac, word2: 00000395, word3: 0000039d
Request  5: 
page fault: 0
data read posedge: 00000001
contents in TLB: 
block 00: tag:  8, valid: 1, reference: 11, VPN: 1
block 01: tag:  0, valid: 1, reference: 00, VPN: 1
block 10: tag:  1, valid: 1, reference: 01, VPN: 3
block 11: tag:  7, valid: 1, reference: 10, VPN: 1
contents in cache: 
block 00: tag: 10100, valid: 1, dirty: 1, word0: 00000281, word1: 00000001, word2: 00000285, word3: 0000028d
block 01: tag: 00000, valid: 0, dirty: 0, word0: 00000000, word1: 00000000, word2: 00000000, word3: 00000000
block 10: tag: 01100, valid: 1, dirty: 0, word0: 00000dac, word1: 00000195, word2: 00000199, word3: 00000191
block 11: tag: 11100, valid: 1, dirty: 1, word0: 00000391, word1: 00000fac, word2: 00000395, word3: 0000039d
Request  6: 
page fault: 0
data read posedge: 00000001
contents in TLB: 
block 00: tag:  8, valid: 1, reference: 11, VPN: 1
block 01: tag:  0, valid: 1, reference: 00, VPN: 1
block 10: tag:  1, valid: 1, reference: 01, VPN: 3
block 11: tag:  7, valid: 1, reference: 10, VPN: 1
contents in cache: 
block 00: tag: 10100, valid: 1, dirty: 1, word0: 00000281, word1: 00000001, word2: 00000285, word3: 0000028d
block 01: tag: 00000, valid: 0, dirty: 0, word0: 00000000, word1: 00000000, word2: 00000000, word3: 00000000
block 10: tag: 01100, valid: 1, dirty: 0, word0: 00000dac, word1: 00000195, word2: 00000199, word3: 00000191
block 11: tag: 11100, valid: 1, dirty: 1, word0: 00000391, word1: 00000fac, word2: 00000395, word3: 0000039d
Request  7: 
page fault: 0
data read posedge: 00000001
contents in TLB: 
block 00: tag:  8, valid: 1, reference: 11, VPN: 1
block 01: tag:  0, valid: 1, reference: 00, VPN: 1
block 10: tag:  1, valid: 1, reference: 01, VPN: 3
block 11: tag:  7, valid: 1, reference: 10, VPN: 1
contents in cache: 
block 00: tag: 10100, valid: 1, dirty: 1, word0: 00000281, word1: 00000001, word2: 00000285, word3: 0000028d
block 01: tag: 00000, valid: 0, dirty: 0, word0: 00000000, word1: 00000000, word2: 00000000, word3: 00000000
block 10: tag: 01100, valid: 1, dirty: 0, word0: 00000dac, word1: 00000195, word2: 00000199, word3: 00000191
block 11: tag: 11100, valid: 1, dirty: 1, word0: 00000391, word1: 00000fac, word2: 00000395, word3: 0000039d
Request  8: 
page fault: 0
data read posedge: 00000001
contents in TLB: 
block 00: tag:  8, valid: 1, reference: 11, VPN: 1
block 01: tag:  0, valid: 1, reference: 00, VPN: 1
block 10: tag:  1, valid: 1, reference: 01, VPN: 3
block 11: tag:  7, valid: 1, reference: 10, VPN: 1
contents in cache: 
block 00: tag: 10100, valid: 1, dirty: 1, word0: 00000281, word1: 00000001, word2: 00000285, word3: 0000028d
block 01: tag: 00000, valid: 0, dirty: 0, word0: 00000000, word1: 00000000, word2: 00000000, word3: 00000000
block 10: tag: 01100, valid: 1, dirty: 0, word0: 00000dac, word1: 00000195, word2: 00000199, word3: 00000191
block 11: tag: 11100, valid: 1, dirty: 1, word0: 00000391, word1: 00000fac, word2: 00000395, word3: 0000039d
Request  9: 
page fault: 0
data read posedge: 00000199
contents in TLB: 
block 00: tag:  8, valid: 1, reference: 10, VPN: 1
block 01: tag: 10, valid: 1, reference: 11, VPN: 1
block 10: tag:  1, valid: 1, reference: 00, VPN: 3
block 11: tag:  7, valid: 1, reference: 01, VPN: 1
contents in cache: 
block 00: tag: 10100, valid: 1, dirty: 1, word0: 00000281, word1: 00000001, word2: 00000285, word3: 0000028d
block 01: tag: 00000, valid: 0, dirty: 0, word0: 00000000, word1: 00000000, word2: 00000000, word3: 00000000
block 10: tag: 01100, valid: 1, dirty: 0, word0: 00000dac, word1: 00000195, word2: 00000199, word3: 00000191
block 11: tag: 11100, valid: 1, dirty: 1, word0: 00000391, word1: 00000fac, word2: 00000395, word3: 0000039d
Request 10: 
page fault: 0
data read posedge: 00000199
contents in TLB: 
block 00: tag:  8, valid: 1, reference: 01, VPN: 1
block 01: tag: 10, valid: 1, reference: 10, VPN: 1
block 10: tag:  0, valid: 1, reference: 11, VPN: 1
block 11: tag:  7, valid: 1, reference: 00, VPN: 1
contents in cache: 
block 00: tag: 10100, valid: 1, dirty: 1, word0: 00000281, word1: 00000001, word2: 00000285, word3: 0000028d
block 01: tag: 00000, valid: 0, dirty: 0, word0: 00000000, word1: 00000000, word2: 00000000, word3: 00000000
block 10: tag: 01100, valid: 1, dirty: 0, word0: 00000dac, word1: 00000195, word2: 00000199, word3: 00000191
block 11: tag: 11100, valid: 1, dirty: 0, word0: 00000391, word1: 00000fac, word2: 00000395, word3: 0000039d
Request 11: 
page fault: 0
data read posedge: 00000001
contents in TLB: 
block 00: tag:  8, valid: 1, reference: 00, VPN: 1
block 01: tag: 10, valid: 1, reference: 01, VPN: 1
block 10: tag:  0, valid: 1, reference: 10, VPN: 1
block 11: tag:  4, valid: 1, reference: 11, VPN: 2
contents in cache: 
block 00: tag: 10100, valid: 1, dirty: 1, word0: 00000281, word1: 00000001, word2: 00000285, word3: 0000028d
block 01: tag: 00000, valid: 0, dirty: 0, word0: 00000000, word1: 00000000, word2: 00000000, word3: 00000000
block 10: tag: 01100, valid: 1, dirty: 0, word0: 00000dac, word1: 00000195, word2: 00000199, word3: 00000191
block 11: tag: 11100, valid: 1, dirty: 0, word0: 00000391, word1: 00000fac, word2: 00000395, word3: 0000039d
Request 12: 
page fault: 0
data read posedge: 00000001
contents in TLB: 
block 00: tag:  8, valid: 1, reference: 00, VPN: 1
block 01: tag: 10, valid: 1, reference: 01, VPN: 1
block 10: tag:  0, valid: 1, reference: 10, VPN: 1
block 11: tag:  4, valid: 1, reference: 11, VPN: 2
contents in cache: 
block 00: tag: 10100, valid: 1, dirty: 1, word0: 00000281, word1: 00000001, word2: 00000285, word3: 0000028d
block 01: tag: 00000, valid: 0, dirty: 0, word0: 00000000, word1: 00000000, word2: 00000000, word3: 00000000
block 10: tag: 01100, valid: 1, dirty: 0, word0: 00000dac, word1: 00000195, word2: 00000199, word3: 00000191
block 11: tag: 11100, valid: 1, dirty: 0, word0: 00000391, word1: 00000fac, word2: 00000395, word3: 0000039d
Request 13: 
page fault: 0
data read posedge: 00000dac
contents in TLB: 
block 00: tag:  7, valid: 1, reference: 11, VPN: 1
block 01: tag: 10, valid: 1, reference: 00, VPN: 1
block 10: tag:  0, valid: 1, reference: 01, VPN: 1
block 11: tag:  4, valid: 1, reference: 10, VPN: 2
contents in cache: 
block 00: tag: 10100, valid: 1, dirty: 1, word0: 00000281, word1: 00000001, word2: 00000285, word3: 0000028d
block 01: tag: 00000, valid: 0, dirty: 0, word0: 00000000, word1: 00000000, word2: 00000000, word3: 00000000
block 10: tag: 01100, valid: 1, dirty: 0, word0: 00000dac, word1: 00000195, word2: 00000199, word3: 00000191
block 11: tag: 11100, valid: 1, dirty: 0, word0: 00000391, word1: 00000fac, word2: 00000395, word3: 0000039d
Request 14: 
page fault: 0
data read posedge: 00000dac
contents in TLB: 
block 00: tag:  7, valid: 1, reference: 11, VPN: 1
block 01: tag: 10, valid: 1, reference: 00, VPN: 1
block 10: tag:  0, valid: 1, reference: 01, VPN: 1
block 11: tag:  4, valid: 1, reference: 10, VPN: 2
contents in cache: 
block 00: tag: 10100, valid: 1, dirty: 1, word0: 00000281, word1: 00000001, word2: 00000285, word3: 0000028d
block 01: tag: 00000, valid: 0, dirty: 0, word0: 00000000, word1: 00000000, word2: 00000000, word3: 00000000
block 10: tag: 01100, valid: 1, dirty: 0, word0: 00000dac, word1: 00000195, word2: 00000199, word3: 00000191
block 11: tag: 11100, valid: 1, dirty: 0, word0: 00000391, word1: 00000fac, word2: 00000395, word3: 0000039d
$stop called at time : 160 ns : File "C:/Users/weehe/OneDrive - sjtu.edu.cn/2022-2023SU/VE370 Intro to Computer Organization/Labs/Lab7/Lab7/Lab7.srcs/sim_1/new/Lab7_vm_test.v" Line 94
